<?xml version="1.0" encoding="UTF-8"?>
<svg width="19px" height="20px" viewBox="0 0 19 20" version="1.1" xmlns="http://www.w3.org/2000/svg" xmlns:xlink="http://www.w3.org/1999/xlink">
    <title>General Settings@3x</title>
    <g id="-" stroke="none" stroke-width="1" fill="none" fill-rule="evenodd" stroke-linecap="round">
        <g id="LMS-13-Topic-Upload-CSV" transform="translate(-33.000000, -114.000000)" stroke="#042C5C" stroke-width="1.5">
            <g id="General-Settings" transform="translate(34.250000, 115.500000)">
                <path d="M12.75,17 L4.25,17 C1.9023,17 0,15.0977 0,12.75 L0,4.25 C0,1.90315 1.9023,0 4.25,0 L12.75,0 C15.0977,0 17,1.90315 17,4.25 L17,12.75 C17,15.2133 14.98125,17 12.75,17 Z" id="Stroke-1"></path>
                <line x1="8.5" y1="7.37936" x2="8.5" y2="13.15171" id="Stroke-3"></line>
                <line x1="4.576995" y1="9.004645" x2="4.576995" y2="13.151795" id="Stroke-5"></line>
                <line x1="12.42292" y1="4.352935" x2="12.42292" y2="13.152135" id="Stroke-7"></line>
            </g>
        </g>
    </g>
</svg>