<?xml version="1.0" encoding="UTF-8"?>
<svg width="18px" height="18px" viewBox="0 0 18 18" version="1.1" xmlns="http://www.w3.org/2000/svg" xmlns:xlink="http://www.w3.org/1999/xlink">
    <title>Item@2x</title>
    <g id="-" stroke="none" stroke-width="1" fill="none" fill-rule="evenodd">
        <g id="LMS-13-Topic-Upload-CSV" transform="translate(-34.000000, -331.000000)" fill="#042C5C" fill-rule="nonzero">
            <g id="Item" transform="translate(34.000000, 331.250000)">
                <path d="M2.75,12 C4.26878306,12 5.5,13.2312169 5.5,14.75 C5.5,16.2687831 4.26878306,17.5 2.75,17.5 C1.23121694,17.5 0,16.2687831 0,14.75 C0,13.2312169 1.23121694,12 2.75,12 Z M14.75,12 C16.2687831,12 17.5,13.2312169 17.5,14.75 C17.5,16.2687831 16.2687831,17.5 14.75,17.5 C13.2312169,17.5 12,16.2687831 12,14.75 C12,13.2312169 13.2312169,12 14.75,12 Z M2.75,13.5 C2.05964406,13.5 1.5,14.0596441 1.5,14.75 C1.5,15.4403559 2.05964406,16 2.75,16 C3.44035594,16 4,15.4403559 4,14.75 C4,14.0596441 3.44035594,13.5 2.75,13.5 Z M14.75,13.5 C14.0596441,13.5 13.5,14.0596441 13.5,14.75 C13.5,15.4403559 14.0596441,16 14.75,16 C15.4403559,16 16,15.4403559 16,14.75 C16,14.0596441 15.4403559,13.5 14.75,13.5 Z M8.75,6 C10.2687831,6 11.5,7.23121694 11.5,8.75 C11.5,10.2687831 10.2687831,11.5 8.75,11.5 C7.23121694,11.5 6,10.2687831 6,8.75 C6,7.23121694 7.23121694,6 8.75,6 Z M8.75,7.5 C8.05964406,7.5 7.5,8.05964406 7.5,8.75 C7.5,9.44035594 8.05964406,10 8.75,10 C9.44035594,10 10,9.44035594 10,8.75 C10,8.05964406 9.44035594,7.5 8.75,7.5 Z M14.75,0 C16.2687831,0 17.5,1.23121694 17.5,2.75 C17.5,4.26878306 16.2687831,5.5 14.75,5.5 C13.2312169,5.5 12,4.26878306 12,2.75 C12,1.23121694 13.2312169,0 14.75,0 Z M2.75,0 C4.26878306,0 5.5,1.23121694 5.5,2.75 C5.5,4.26878306 4.26878306,5.5 2.75,5.5 C1.23121694,5.5 0,4.26878306 0,2.75 C0,1.23121694 1.23121694,0 2.75,0 Z M14.75,1.5 C14.0596441,1.5 13.5,2.05964406 13.5,2.75 C13.5,3.44035594 14.0596441,4 14.75,4 C15.4403559,4 16,3.44035594 16,2.75 C16,2.05964406 15.4403559,1.5 14.75,1.5 Z M2.75,1.5 C2.05964406,1.5 1.5,2.05964406 1.5,2.75 C1.5,3.44035594 2.05964406,4 2.75,4 C3.44035594,4 4,3.44035594 4,2.75 C4,2.05964406 3.44035594,1.5 2.75,1.5 Z" id="Shape"></path>
            </g>
        </g>
    </g>
</svg>