<?xml version="1.0" encoding="UTF-8"?>
<svg width="20px" height="20px" viewBox="0 0 20 20" version="1.1" xmlns="http://www.w3.org/2000/svg" xmlns:xlink="http://www.w3.org/1999/xlink">
    <title>Quiz@2x</title>
    <g id="-" stroke="none" stroke-width="1" fill="none" fill-rule="evenodd">
        <g id="LMS-13-Topic-Upload-CSV" transform="translate(-33.000000, -374.000000)" fill="#042C5C" fill-rule="nonzero">
            <g id="Quiz" transform="translate(33.000000, 374.250000)">
                <path d="M16.75,0 C18.2687831,0 19.5,1.23121694 19.5,2.75 L19.5,12.75 C19.5,14.2687831 18.2687831,15.5 16.75,15.5 L15.5,15.5 L15.5,16.8928571 C15.5,18.2773622 14.4208047,19.4098077 13.057737,19.4948708 L12.8928571,19.5 L3.75,19.5 C1.67893219,19.5 0,17.8210678 0,15.75 L0,15.75 L0,6.60714286 C0,5.16725762 1.16725762,4 2.60714286,4 L2.60714286,4 L4,3.999 L4,2.75 C4,1.23121694 5.23121694,0 6.75,0 L16.75,0 Z M4,5.499 L2.60714286,5.5 C1.99568474,5.5 1.5,5.99568474 1.5,6.60714286 L1.5,6.60714286 L1.5,15.75 C1.5,16.9926407 2.50735931,18 3.75,18 L3.75,18 L12.8928571,18 C13.5043153,18 14,17.5043153 14,16.8928571 L14,16.8928571 L14,15.5 L6.75,15.5 C5.23121694,15.5 4,14.2687831 4,12.75 L4,5.499 Z M16.75,1.5 L6.75,1.5 C6.05964406,1.5 5.5,2.05964406 5.5,2.75 L5.5,12.75 C5.5,13.4403559 6.05964406,14 6.75,14 L16.75,14 C17.4403559,14 18,13.4403559 18,12.75 L18,2.75 C18,2.05964406 17.4403559,1.5 16.75,1.5 Z M14.25,9 C14.6642136,9 15,9.33578644 15,9.75 C15,10.1642136 14.6642136,10.5 14.25,10.5 L14.25,10.5 L9.25,10.5 C8.83578644,10.5 8.5,10.1642136 8.5,9.75 C8.5,9.33578644 8.83578644,9 9.25,9 L9.25,9 Z" id="Shape"></path>
                <path d="M9.25,6.5 L14.25,6.5 C14.6642136,6.5 15,6.16421356 15,5.75 C15,5.33578644 14.6642136,5 14.25,5 L9.25,5 C8.83578644,5 8.5,5.33578644 8.5,5.75 C8.5,6.16421356 8.83578644,6.5 9.25,6.5 Z" id="Shape" opacity="0.5" transform="translate(11.750000, 5.750000) rotate(-180.000000) translate(-11.750000, -5.750000) "></path>
            </g>
        </g>
    </g>
</svg>