<?xml version="1.0" encoding="UTF-8"?>
<svg width="20px" height="22px" viewBox="0 0 20 22" version="1.1" xmlns="http://www.w3.org/2000/svg" xmlns:xlink="http://www.w3.org/1999/xlink">
    <title>bell@1.5x</title>
    <g id="-" stroke="none" stroke-width="1" fill="none" fill-rule="evenodd" stroke-linecap="round" stroke-linejoin="round">
        <g id="LMS-2-League" transform="translate(-1167.000000, -50.000000)" stroke="#606060" stroke-width="2">
            <g id="Navbar" transform="translate(314.000000, 30.000000)">
                <g id="bell" transform="translate(854.000000, 21.000000)">
                    <path d="M15,6 C15,2.6862915 12.3137085,0 9,0 C5.6862915,0 3,2.6862915 3,6 C3,13 0,15 0,15 L18,15 C18,15 15,13 15,6" id="Path"></path>
                    <path d="M10.73,19 C10.3722022,19.6168043 9.71306861,19.9964563 9,19.9964563 C8.28693139,19.9964563 7.62779776,19.6168043 7.27,19" id="Path"></path>
                </g>
            </g>
        </g>
    </g>
</svg>