<?xml version="1.0" encoding="UTF-8"?>
<svg width="21px" height="20px" viewBox="0 0 21 20" version="1.1" xmlns="http://www.w3.org/2000/svg" xmlns:xlink="http://www.w3.org/1999/xlink">
    <title>check-square@1.5x</title>
    <g id="-" stroke="none" stroke-width="1" fill="none" fill-rule="evenodd" stroke-linecap="round" stroke-linejoin="round">
        <g id="LMS-1-General-Setting" transform="translate(-335.000000, -51.000000)" stroke="#606060" stroke-width="2">
            <g id="Navbar" transform="translate(314.000000, 30.000000)">
                <g id="check-square" transform="translate(22.000000, 22.000000)">
                    <polyline id="Path" points="6 8 9 11 19 1"></polyline>
                    <path d="M18,9 L18,16 C18,17.1045695 17.1045695,18 16,18 L2,18 C0.8954305,18 0,17.1045695 0,16 L0,2 C0,0.8954305 0.8954305,0 2,0 L13,0" id="Path"></path>
                </g>
            </g>
        </g>
    </g>
</svg>