<?xml version="1.0" encoding="UTF-8"?>
<svg width="12px" height="7px" viewBox="0 0 12 7" version="1.1" xmlns="http://www.w3.org/2000/svg" xmlns:xlink="http://www.w3.org/1999/xlink">
    <title>chevron-down@1.5x</title>
    <g id="-" stroke="none" stroke-width="1" fill="none" fill-rule="evenodd" stroke-linecap="round" stroke-linejoin="round">
        <g id="LMS-1-General-Setting" transform="translate(-234.000000, -76.000000)" stroke="#606060" stroke-width="2">
            <g id="chevron-down" transform="translate(235.000000, 77.000000)">
                <polyline id="Path" points="0 0 5 5 10 0"></polyline>
            </g>
        </g>
    </g>
</svg>