<?xml version="1.0" encoding="UTF-8"?>
<svg width="20px" height="20px" viewBox="0 0 20 20" version="1.1" xmlns="http://www.w3.org/2000/svg" xmlns:xlink="http://www.w3.org/1999/xlink">
    <title>message-square@1.5x</title>
    <g id="-" stroke="none" stroke-width="1" fill="none" fill-rule="evenodd" stroke-linecap="round" stroke-linejoin="round">
        <g id="LMS-1-General-Setting" transform="translate(-376.000000, -51.000000)" stroke="#606060" stroke-width="2">
            <g id="Navbar" transform="translate(314.000000, 30.000000)">
                <g id="message-square" transform="translate(63.000000, 22.000000)">
                    <path d="M18,12 C18,13.1045695 17.1045695,14 16,14 L4,14 L0,18 L0,2 C0,0.8954305 0.8954305,0 2,0 L16,0 C17.1045695,0 18,0.8954305 18,2 L18,12 Z" id="Path"></path>
                </g>
            </g>
        </g>
    </g>
</svg>