<?xml version="1.0" encoding="UTF-8"?>
<svg width="20px" height="21px" viewBox="0 0 20 21" version="1.1" xmlns="http://www.w3.org/2000/svg" xmlns:xlink="http://www.w3.org/1999/xlink">
    <title>Question Pool@2x</title>
    <g id="-" stroke="none" stroke-width="1" fill="none" fill-rule="evenodd">
        <g id="LMS-13-Topic-Upload-CSV" transform="translate(-33.000000, -415.000000)" fill="#042C5C" fill-rule="nonzero">
            <g id="Question-Pool" transform="translate(33.000000, 415.885162)">
                <path d="M16.75,-2.13162821e-14 C18.2687831,-2.13162821e-14 19.5,1.23121694 19.5,2.75 L19.5,12.75 C19.5,14.2687831 18.2687831,15.5 16.75,15.5 L15.5,15.499 L15.5,16.8928571 C15.5,18.2773622 14.4208047,19.4098077 13.057737,19.4948708 L12.8928571,19.5 L3.75,19.5 C1.67893219,19.5 0,17.8210678 0,15.75 L0,15.75 L0,6.60714286 C0,5.16725762 1.16725762,4 2.60714286,4 L2.60714286,4 L4,3.999 L4,2.75 C4,1.23121694 5.23121694,-2.13162821e-14 6.75,-2.13162821e-14 L16.75,-2.13162821e-14 Z M4,5.499 L2.60714286,5.5 C1.99568474,5.5 1.5,5.99568474 1.5,6.60714286 L1.5,6.60714286 L1.5,15.75 C1.5,16.9926407 2.50735931,18 3.75,18 L3.75,18 L12.8928571,18 C13.5043153,18 14,17.5043153 14,16.8928571 L14,16.8928571 L14,15.499 L6.75,15.5 C5.23121694,15.5 4,14.2687831 4,12.75 L4,5.499 Z M16.75,1.5 L6.75,1.5 C6.05964406,1.5 5.5,2.05964406 5.5,2.75 L5.5,12.75 C5.5,13.4403559 6.05964406,14 6.75,14 L16.75,14 C17.4403559,14 18,13.4403559 18,12.75 L18,2.75 C18,2.05964406 17.4403559,1.5 16.75,1.5 Z M11.75,4.5 C12.1642136,4.5 12.5,4.83578644 12.5,5.25 L12.5,5.25 L12.5,7 L14.25,7 C14.6296958,7 14.943491,7.28215388 14.9931534,7.64822944 L15,7.75 C15,8.16421356 14.6642136,8.5 14.25,8.5 L14.25,8.5 L12.499,8.5 L12.5,10.25 C12.5,10.6296958 12.2178461,10.943491 11.8517706,10.9931534 L11.75,11 C11.3357864,11 11,10.6642136 11,10.25 L11,10.25 L10.999,8.5 L9.25,8.5 C8.87030423,8.5 8.55650904,8.21784612 8.50684662,7.85177056 L8.5,7.75 C8.5,7.33578644 8.83578644,7 9.25,7 L9.25,7 L11,6.999 L11,5.25 C11,4.87030423 11.2821539,4.55650904 11.6482294,4.50684662 Z" id="Shape"></path>
            </g>
        </g>
    </g>
</svg>