<?xml version="1.0" encoding="UTF-8"?>
<svg width="20px" height="19px" viewBox="0 0 20 19" version="1.1" xmlns="http://www.w3.org/2000/svg" xmlns:xlink="http://www.w3.org/1999/xlink">
    <title>Video</title>
    <g id="-" stroke="none" stroke-width="1" fill="none" fill-rule="evenodd">
        <g id="LMS-13-Topic-Upload-CSV" transform="translate(-33.000000, -545.000000)" fill="#042C5C" fill-rule="nonzero">
            <g id="Video" transform="translate(33.000000, 545.614838)">
                <path d="M11.75,4 C13.2329564,4 14.4417535,5.17381553 14.4979571,6.64301241 L17.1000663,5.60219875 C17.9974375,5.24325029 19.0158857,5.67972812 19.3748342,6.57709928 C19.4575184,6.78380976 19.5,7.00439896 19.5,7.22703296 L19.5,14.272967 C19.5,15.2394654 18.7164983,16.022967 17.75,16.022967 C17.527366,16.022967 17.3067768,15.9804854 17.1000663,15.8978012 L14.496,14.856 L14.4949812,14.9175223 C14.4084043,16.3582954 13.2125318,17.5 11.75,17.5 L2.75,17.5 C1.23121694,17.5 0,16.2687831 0,14.75 L0,6.75 C0,5.23121694 1.23121694,4 2.75,4 L11.75,4 Z M11.75,5.5 L2.75,5.5 C2.05964406,5.5 1.5,6.05964406 1.5,6.75 L1.5,14.75 C1.5,15.4403559 2.05964406,16 2.75,16 L11.75,16 C12.4403559,16 13,15.4403559 13,14.75 L13,6.75 C13,6.05964406 12.4403559,5.5 11.75,5.5 Z M17.6571523,6.99491379 L14.5,8.25777472 L14.5,13.2422253 L17.6571523,14.5050862 C17.6866824,14.5168982 17.7181951,14.522967 17.75,14.522967 C17.8880712,14.522967 18,14.4110382 18,14.272967 L18,7.22703296 C18,7.1952281 17.9939312,7.16371536 17.9821192,7.13418529 C17.9308408,7.00598941 17.7853482,6.94363544 17.6571523,6.99491379 Z M11.75,0 C12.1642136,0 12.5,0.335786438 12.5,0.75 C12.5,1.16421356 12.1642136,1.5 11.75,1.5 L11.75,1.5 L2.75,1.5 C2.33578644,1.5 2,1.16421356 2,0.75 C2,0.335786438 2.33578644,0 2.75,0 L2.75,0 Z" id="Shape"></path>
            </g>
        </g>
    </g>
</svg>